{
  "name": "tabicon",
  "css_prefix_text": "icon-",
  "css_use_suffix": false,
  "hinting": true,
  "units_per_em": 1000,
  "ascent": 850,
  "glyphs": [
    {
      "uid": "f2e99d90349dd5c97495cb3e4e0e6c40",
      "css": "gluxicon",
      "code": 59396,
      "src": "custom_icons",
      "selected": true,
      "svg": {
        "path": "M634.4 167.2L734.4 293H634.4V381.3H760.9L634.4 701.6V946.1L1187.5 342.2 964.8 1.6H634.4V167.2ZM723.4 718L856.3 382H1031.3L723.4 718ZM950.8 141.4L1050 293H890.6L950.8 141.4ZM812.5 250L685.9 89.8H875.8L812.5 250ZM553.9 291.4H358.6V381.3H471.1V761.7L112.5 334.4 272.7 90.6 553.9 89.8V0L223.4 0.8 0 340.6 553.9 1000Z",
        "width": 1188
      },
      "search": [
        "gluxicon"
      ]
    },
    {
      "uid": "8f4a990aa0f7ef8b7b2c8c2ecd055465",
      "css": "designer",
      "code": 59395,
      "src": "custom_icons",
      "selected": true,
      "svg": {
        "path": "M1001.4 35.4C1001.4 26.4 997.9 18 991.6 11.7 978.9-1 957-1 944.3 11.7L861.9 94.1C857.2 92.2 852.3 90.4 847.5 89.3L584.6 24.2C553.5 16.4 520.3 25.8 497.7 48.2L28.1 517C-7.6 552.7-7.6 610.7 28.1 646.5L356.6 975C374.4 992.8 397.9 1001.8 421.3 1001.8 444.7 1001.8 468.2 992.8 485.9 975L954.7 505.5C977.3 482.8 986.5 449.6 978.7 418.6L914.1 155.7C912.9 150.8 911.1 145.9 909.2 141.2L991.6 58.8C997.9 52.5 1001.4 44.1 1001.4 35.4ZM726.4 311.7C717 321.1 700.8 321.1 691.4 311.7 686.7 307 684.2 300.8 684.2 294.3S686.7 281.6 691.4 277C696.1 272.3 702.3 269.7 708.8 269.7S721.7 272.3 726.2 277C735.9 286.5 735.9 302.1 726.4 311.7ZM745.5 210.5C711.1 195.5 670.9 203.1 644.1 229.7 627 246.9 617.4 269.9 617.4 294.3S627 341.8 644.1 359C661.3 376.2 684.4 385.7 708.8 385.7 733.2 385.7 756.3 376.2 773.4 359 800 332.4 807.6 292 792.6 257.6L854.9 195.3 914.1 434.8 914.1 434.8C916.2 443.2 913.7 452.1 907.6 458.2L438.9 927.7C429.3 937.3 413.7 937.3 403.9 927.7L75.4 599.2C65.8 589.6 65.8 574 75.4 564.3L544.9 95.5C549.6 91 555.9 88.3 562.5 88.3 564.5 88.3 566.4 88.5 568.4 89.1L807.8 148.2 745.5 210.5Z",
        "width": 1000
      },
      "search": [
        "designer"
      ]
    },
    {
      "uid": "07a083405cb5444efbbe5a51d49fedd3",
      "css": "account",
      "code": 59394,
      "src": "custom_icons",
      "selected": true,
      "svg": {
        "path": "M936.2 1000C954.6 1000 968.8 985.8 968.8 967.4 968.8 761.7 838.3 577.3 644 509.2L632.6 505 642.6 497.9C714.9 446.8 758.9 363.1 758.9 273.8 758.9 123.4 635.5 0 485.1 0 333.3 0 211.3 123.4 211.3 273.8 211.3 361.7 255.3 445.4 327.7 497.9L337.6 505 326.2 509.2C130.5 577.3 0 761.7 0 967.4 0 985.8 14.2 1000 32.6 1000H936.2ZM66.7 934.8L66.7 927.7C87.9 712.1 266.7 548.9 483.7 548.9 700.7 548.9 879.4 712.1 900.7 927.7L900.7 934.8H893.6 73.8 66.7ZM276.6 273.8C276.6 158.9 370.2 65.2 485.1 65.2 600 65.2 693.6 158.9 693.6 273.8 693.6 388.7 600 482.3 485.1 482.3 370.2 482.3 276.6 388.7 276.6 273.8Z",
        "width": 970
      },
      "search": [
        "account"
      ]
    },
    {
      "uid": "5c1d0792c3c2d2f05a1461d3e81cf60c",
      "css": "wishlist",
      "code": 59393,
      "src": "custom_icons",
      "selected": true,
      "svg": {
        "path": "M693.6 319.1L690.8 313.5 546.1 19.9C540.4 7.1 533.3 0 524.8 0 516.3 0 509.2 7.1 503.5 19.9L358.9 313.5 356 319.1 350.4 320.6 27 366C2.8 370.2 0 378.7 0 384.4 0 387.2 1.4 395.7 12.8 407.1L246.8 635.5 251.1 639.7 249.6 645.4 194.3 967.4C192.9 974.5 192.9 977.3 192.9 978.7 192.9 985.8 194.3 990.1 197.2 995.7 198.6 998.6 201.4 1000 208.5 1000 214.2 1000 221.3 997.2 228.4 994.3L517.7 842.6 523.4 839.7 529.1 842.6 818.4 992.9C825.5 997.2 832.6 1000 839.7 1000 846.8 1000 855.3 998.6 855.3 978.7 855.3 974.5 855.3 970.2 855.3 967.4L800 645.4 798.6 639.7 802.8 635.5 1036.9 407.1C1042.6 401.4 1049.6 391.5 1049.6 384.4 1049.6 378.7 1046.8 370.2 1022.7 366L699.3 319.1 693.6 319.1ZM733.3 621.3L778.7 885.1 783 907.8 763.1 897.9 527.7 773 524.8 770.2 523.4 771.6 286.5 896.5 266.7 906.4 270.9 883.7 316.3 619.9 316.3 618.4 314.9 617 123.4 431.2 107.8 415.6 130.5 412.8 394.3 374.5 395.7 374.5 397.2 373 514.9 133.3 524.8 113.5 534.8 133.3 652.5 371.6 653.9 373 655.3 373 919.1 411.3 941.8 414.2 926.2 429.8 734.8 617 733.3 618.4 733.3 621.3Z",
        "width": 1050
      },
      "search": [
        "wishlist"
      ]
    },
    {
      "uid": "b89b78c8eb1c71d51abad08926d931dc",
      "css": "shopall",
      "code": 59392,
      "src": "custom_icons",
      "selected": true,
      "svg": {
        "path": "M0 748.9V774.9C0 846.3 56.3 904.8 123.4 904.8H876.6C945.9 904.8 1000 846.3 1000 774.9L997.8 748.9C997.8 686.1 958.9 627.7 902.6 606.1L541.1 465.4 534.6 463.2 532.5 463.2 532.5 461 532.5 454.5 530.3 409.1 530.3 400.4 530.3 398.3 532.5 398.3 541.1 396.1C606.1 376.6 651.5 318.2 651.5 248.9 651.5 164.5 582.3 97.4 500 97.4 463.2 97.4 402.6 127.7 370.1 177.5 363.6 186.1 363.6 197 368 207.8 372.3 216.5 383.1 222.9 393.9 222.9H393.9C402.6 222.9 411.3 218.6 417.7 210 435.1 179.7 469.7 158 500 158 551.9 158 593.1 199.1 593.1 251.1 593.1 303 551.9 344.2 500 344.2 493.5 344.2 487 346.3 480.5 352.8 476.2 357.1 471.9 363.6 471.9 372.3L471.9 456.7 471.9 465.4 471.9 467.5 469.7 467.5 463.2 469.7 97.4 606.1C39 627.7 0 684 0 748.9ZM58.4 748.9C58.4 710 82.3 675.3 116.9 662.3L495.7 519.5 500 517.3 500 517.3 500 517.3 504.3 519.5 881 662.3C915.6 675.3 939.4 710 939.4 748.9V764.1L939.4 774.9C939.4 811.7 909.1 844.2 874.5 844.2H123.4C88.7 844.2 58.4 811.7 58.4 774.9V748.9Z",
        "width": 1000
      },
      "search": [
        "shopall"
      ]
    },
    {
      "uid": "984088e254176e356fb142bc6ed9c314",
      "css": "filter-by",
      "code": 59397,
      "src": "custom_icons",
      "selected": true,
      "svg": {
        "path": "M1081.3 20.3C1075.8 7.8 1062.5 0 1049.2 0H35.9C21.9 0 9.4 7.8 3.1 20.3-3.1 33.6-0.8 47.7 7.8 58.6L396.1 529.7V964.1C396.1 975.8 402.3 987.5 413.3 994.5 419.5 997.7 425 999.2 432 999.2 435.9 999.2 442.2 998.4 448.4 996.1L667.2 887.5C678.9 881.3 686.7 868.7 686.7 855.5L687.5 529.7 1075.8 58.6C1085.2 46.9 1086.7 32.8 1081.3 20.3ZM460.2 494.5L111.7 71.1H972.7L624.2 494.5 624.2 494.5C618.8 502.3 615.6 509.4 615.6 517.2L614.8 833.6 468 906.3V517.2C468 507.8 465.6 500.8 460.2 494.5Z",
        "width": 1084
      },
      "search": [
        "filter-by"
      ]
    },
    {
      "uid": "a51e4d1e3c35d74c8a2e8ae226bdee5b",
      "css": "sort-by",
      "code": 59398,
      "src": "custom_icons",
      "selected": true,
      "svg": {
        "path": "M627.6 122.7C611 52.4 547.8 0 472.4 0S333.8 52.4 317.1 122.7H0V196.3H317.1C333.7 266.7 396.9 319.1 472.4 319.1S611 266.7 627.6 196.3H981.5V122.7H627.6ZM773 340.5C697.6 340.5 634.4 392.8 617.8 463.2H0V536.8H617.7C634.3 607.2 697.5 659.5 773 659.5S911.7 607.2 928.3 536.8H981.5V463.2H928.2C911.6 392.8 848.4 340.5 773 340.5ZM347.7 680.9C272.2 680.9 209 733.3 192.4 803.6H0V877.2H192.4C209 947.6 272.2 1000 347.7 1000S486.3 947.6 502.9 877.2H981.5V803.6H502.9C486.3 733.3 423.1 680.9 347.7 680.9Z",
        "width": 982
      },
      "search": [
        "sort-by"
      ]
    },
    {
      "uid": "35c697059293f5d569fb6d905fa8f4ab",
      "css": "tick",
      "code": 59399,
      "src": "custom_icons",
      "selected": true,
      "svg": {
        "path": "M985.4 147.5C965.8 127.9 934.2 127.9 914.6 147.5L315.6 746.5 85.4 516.2C65.8 496.7 34.2 496.7 14.6 516.2-4.9 535.8-4.9 567.4 14.6 586.9L280.3 852.6C299.8 872.1 331.5 872.1 351 852.6L985.4 218.2C1004.9 198.6 1004.9 167 985.4 147.5Z",
        "width": 1000
      },
      "search": [
        "tick"
      ]
    },
    {
      "uid": "07c52288018a6761931cc0012df8b7bf",
      "css": "up-arrow",
      "code": 59400,
      "src": "custom_icons",
      "selected": true,
      "svg": {
        "path": "M990 685.4L523 218.4C516.4 211.8 508.7 208.4 500 208.4S483.6 211.8 477 218.4L10 685.4C3.3 692.1 0 699.7 0 708.4 0 717.1 3.3 724.8 10 731.5L60.1 781.6C66.8 788.2 74.5 791.6 83.2 791.6 91.8 791.6 99.5 788.2 106.2 781.6L500 387.8 893.8 781.6C900.5 788.3 908.2 791.6 916.8 791.6 925.5 791.6 933.2 788.2 939.9 781.6L990 731.5C996.7 724.8 1000 717.1 1000 708.4 1000 699.7 996.7 692.1 990 685.4Z",
        "width": 1000
      },
      "search": [
        "up-arrow"
      ]
    },
    {
      "uid": "b91c0e6aaab5e3146732b69dd418e120",
      "css": "up-open",
      "code": 59401,
      "src": "elusive"
    },
    {
      "uid": "616b755d0f4c7d2dc7a1dcc2e5427039",
      "css": "down-open",
      "code": 59402,
      "src": "elusive"
    },
    {
      "uid": "7e89c12b577c31bc91bfb61bb597f01f",
      "css": "down-dir",
      "code": 59403,
      "src": "entypo"
    },
    {
      "uid": "401b644723fb2f20b0df30cce7745c18",
      "css": "up-dir",
      "code": 59404,
      "src": "entypo"
    },
    {
      "uid": "5d2d07f112b8de19f2c0dbfec3e42c05",
      "css": "spin5",
      "code": 59448,
      "src": "fontelico"
    },
    {
      "uid": "9bd60140934a1eb9236fd7a8ab1ff6ba",
      "css": "spin4",
      "code": 59444,
      "src": "fontelico"
    },
    {
      "uid": "b714be5a812a474811604f700dfc87ce",
      "css": "left-open",
      "code": 61447,
      "src": "mfglabs"
    },
    {
      "uid": "91426c82d94428a33353e495418435e3",
      "css": "share-1",
      "code": 59405,
      "src": "entypo"
    },
    {
      "uid": "e57c9d63a8da6d3be3508808c131d130",
      "css": "g-points",
      "code": 59406,
      "src": "custom_icons",
      "selected": true,
      "svg": {
        "path": "M793 803.9M883.6 257.8C884.4 258.6 885.2 260.2 885.2 260.9 884.4 259.4 884.4 258.6 883.6 257.8ZM446.1 731.3L360.9 682 446.1 731.3ZM879.7 252.3C879.7 252.3 880.5 253.1 880.5 253.1 880.5 253.1 880.5 253.1 879.7 252.3ZM351.6 550.8L358.6 554.7 351.6 550.8ZM0 710.9C0 718.8 1.6 726.6 4.7 733.6 1.6 726.6 0 718.8 0 710.9L0 710.9ZM29.7 236.7L414.8 8.6C434.4-3.1 457.8-3.1 477.3 8.6L862.5 236.7C864.8 238.3 867.2 239.8 868.8 241.4 871.1 243 872.7 244.5 875 246.9 876.6 248.4 877.3 250 878.9 251.6 874.2 246.1 868.8 241.4 862.5 236.7L477.3 8.6C457.8-3.1 434.4-3.1 414.8 8.6L29.7 236.7C10.9 247.7 0 268 0 289.1L0 289.1C0 268 11.7 247.7 29.7 236.7ZM879.7 252.3C879.7 252.3 878.9 251.6 878.9 250.8 879.7 251.6 879.7 252.3 879.7 252.3L879.7 252.3ZM881.3 253.9C882 255.5 882.8 256.3 883.6 257.8 882.8 256.3 882 254.7 881.3 253.9ZM885.2 260.9L885.2 260.9 885.2 260.9ZM4.7 733.6C9.4 746.1 18.8 756.3 30.5 763.3L84.4 795.3 84.4 795.3 30.5 763.3C18 756.3 9.4 746.1 4.7 733.6ZM118.8 693.8L409.4 858.6 118.8 693.8ZM414.8 991.4C424.2 996.9 435.2 1000 446.1 1000S468 996.9 477.3 991.4L862.5 763.3C881.3 752.3 892.2 732 892.2 710.9V289.1C892.2 278.9 889.8 268.8 885.2 260.2L885.2 260.2C884.4 259.4 883.6 257.8 883.6 257 882.8 255.5 882 254.7 881.3 253.1 881.3 253.1 880.5 252.3 880.5 252.3 880.5 252.3 879.7 251.6 879.7 250.8 878.1 249.2 877.3 247.7 875.8 246.1 874.2 243.7 871.9 242.2 869.5 240.6S865.6 237.5 863.3 235.9L477.3 8.6C457.8-3.1 434.4-3.1 414.8 8.6L29.7 236.7C10.9 247.7 0 268 0 289.1V710.9C0 718.8 1.6 726.6 4.7 733.6 9.4 746.1 18.8 756.3 30.5 763.3L84.4 795.3 84.4 795.3 414.8 991.4ZM118.8 311.7L118.8 311.7 118.8 311.7 408.6 147.7 446.1 126.6 639.1 238.3 639.1 238.3 639.1 238.3 559.4 285.2 515.6 310.2 512.5 311.7 511.7 310.9 446.1 269.5 246.9 385.2V614.8L361.7 681.2 446.9 730.5 641.4 617.2V535.2L480.5 627.3 358.6 555.5 351.6 550.8 351.6 550.8 351.6 550.8 767.2 311.7V693.8L467.2 867.2 446.1 879.7 409.4 858.6 118.8 693.8 118.8 693.8 118.8 693.8 118.8 311.7 118.8 311.7Z",
        "width": 892
      },
      "search": [
        "g-points"
      ]
    },
    {
      "uid": "bed4cae4d72826c28ed7c5deab2b6293",
      "css": "shopping-bag",
      "code": 59407,
      "src": "custom_icons",
      "selected": true,
      "svg": {
        "path": "M795.3 1000C811.7 1000 825 986.7 825 970.3 825 968.8 825 966.4 825 965.6L762.5 278.9C760.9 262.5 749.2 251.6 732.8 251.6H606.3 600V245.3 187.5C600 84.4 515.6 0 412.5 0S225 84.4 225 187.5V244.5 250.8H218.8 92.2C75.8 250.8 63.3 261.7 62.5 278.1L0 967.2C-1.6 975.8 2.3 983.6 7.8 989.8 14.1 996.1 21.1 1000 30.5 1000 29.7 1000 795.3 1000 795.3 1000ZM285.9 250.8V244.5 187.5C285.9 116.4 343 59.4 414.1 59.4S542.2 116.4 542.2 187.5V244.5 250.8H534.4 292.2 285.9ZM256.3 412.5C272.7 412.5 285.9 399.2 285.9 382.8V318 310.2H292.2 534.4 540.6V316.4 381.3C540.6 397.7 553.9 410.9 570.3 410.9S600 397.7 600 381.3V316.4 310.2H606.2 700.8 707V316.4L763.3 932.8 764.8 940.6H757 69.5 62.5L64.1 932.8 120.3 316.4V310.2H126.6 221.1 226.6V316.4 381.3C225 398.4 239.1 412.5 256.3 412.5Z",
        "width": 825
      },
      "search": [
        "shopping-bag"
      ]
    },
    {
      "uid": "44eb9d69bf3b9b74629ce6852a2f9681",
      "css": "cancel-circled-1",
      "code": 61550,
      "src": "mfglabs"
    },
    {
      "uid": "06301c50d89b5d3e651bd07ebd6d7de7",
      "css": "cancel-1",
      "code": 59411,
      "src": "mfglabs"
    },
    {
      "uid": "14017aae737730faeda4a6fd8fb3a5f0",
      "css": "check",
      "code": 59409,
      "src": "entypo"
    },
    {
      "uid": "e7fa6ee4d638f9b319024451ee8838b7",
      "css": "glux-logo",
      "code": 59408,
      "src": "custom_icons",
      "selected": true,
      "svg": {
        "path": "M485.9 540.6C485.9 570.3 485.9 592.2 462.5 631.3 403.1 712.5 313.3 712.5 285.2 712.5 222.7 712.5 159.4 696.9 116.4 669.5 82.8 647.7 52.3 618 29.7 565.6 11.7 525.8 0 483.6 0 423.4 0 361.7 10.9 307 33.6 260.2 62.5 200 113.3 153.9 160.9 136.7 85.2 193 59.4 321.1 63.3 435.9 67.2 550 100 624.2 151.6 657.8 186.7 679.7 242.2 689.8 284.4 689.8 318 689.8 357.8 683.6 380.5 668.7 403.1 653.9 422.7 634.4 422.7 596.1V547.7C422.7 525 421.9 510.2 416.4 500.8 406.3 482 389.8 478.9 375 475.8 370.3 475 346.9 474.2 326.6 472.7V456.2H485.2L485.9 540.6 485.9 540.6ZM452.3 279.7C447.7 253.1 442.2 236.7 432 219.5 426.6 209.4 421.9 200 409.4 186.7 368.7 140.6 324.2 131.2 287.5 132 251.6 132.8 223.4 142.2 196.1 165.6 169.5 189.1 150 217.2 135.2 260.2 120.3 303.9 112.5 353.9 112.5 411.7 112.5 477.3 121.1 518.7 132.8 563.3 139.1 585.9 152.3 614.8 163.3 639.1 107.8 600.8 89.1 503.9 86.7 434.4 82.8 314.8 112.5 207 171.9 154.7 220.3 111.7 275 111.7 284.4 111.7 347.7 111.7 376.6 131.3 414.1 158.6 421.1 164.1 429.7 170.3 433.6 170.3 443.8 170.3 453.9 157.8 457 125H485.9V282L452.3 279.7ZM843.8 696.9C865.6 696.1 879.7 693.8 888.3 690.6 897.7 686.7 904.7 680.5 908.6 671.1 911.7 661.7 913.3 646.9 913.3 625.8L912.5 121.9H975L975.8 689.1H1139.8C1174.2 689.1 1200 683.6 1218 674.2 1235.9 664.1 1249.2 650 1257 628.9 1264.8 607 1271.1 580.5 1275 539.1H1297.7V712.5H843.8V696.9ZM1027.3 164.1C1023.4 173.4 1022.7 188.3 1022.7 209.4L1023.4 669.5H996.9L996.1 121.9H1088.3V137.5C1070.3 138.3 1054.7 140.6 1045.3 144.5 1036.7 147.7 1030.5 154.7 1027.3 164.1ZM1857.8 136.7C1835.9 137.5 1824.2 140.6 1814.8 145.3S1799.2 158.6 1796.1 169.5C1792.2 180.5 1790.6 196.1 1790.6 218V458.6C1790.6 497.7 1788.3 532 1782.8 560.9 1777.3 589.1 1768.8 613.3 1756.3 634.4 1742.2 657.8 1725 676.6 1698.4 690.6 1671.1 704.7 1646.1 710.9 1604.7 711.7 1520.3 712.5 1479.7 695.3 1446.9 667.2 1429.7 653.1 1414.1 635.2 1405.5 618 1396.1 600.8 1386.7 580.5 1383.6 556.3 1379.7 532 1378.1 500.8 1378.1 461.7V121.9H1439.8C1440.6 189.1 1440.6 438.3 1440.6 457.8 1440.6 556.3 1454.7 614.8 1489.1 648.4 1509.4 668.8 1538.3 682.8 1575.8 686.7 1592.2 689.1 1598.4 689.1 1611.7 689.1 1666.4 689.1 1707 670.3 1731.3 632.8 1757.8 593 1768 537.5 1768 469.5L1767.2 121.9H1857.8V136.7ZM1460.9 121.9H1554.7V137.5C1534.4 138.3 1520.3 139.8 1510.9 143 1501.6 146.9 1495.3 154.7 1492.2 164.1 1489.1 173.4 1487.5 188.3 1487.5 209.4V475.8C1487.5 520.3 1488.3 554.7 1491.4 580.5 1493 593 1495.3 610.9 1500 627.3 1475 597.7 1461.7 543 1461.7 457L1460.9 121.9ZM2339.1 211.7L2221.1 383.6 2440.6 712.5H2225V694.5C2246.1 694.5 2261.7 693.8 2271.1 691.4 2279.7 689.8 2284.4 685.9 2284.4 681.3 2284.4 677.3 2282 672.7 2278.1 666.4L2154.7 481.2 1997.7 713.3H1939.1V698.4C1953.9 696.1 1971.1 688.3 1985.9 676.6 2000.8 664.1 2016.4 646.1 2032 622.7L2140.6 460.9 1913.3 121.9H1987.5L2368.8 689.8H2397.7L2193.7 383.6 2372.7 121.1H2433.6V135.2C2414.8 137.5 2400.8 145.3 2385.9 157.8 2370.3 171.1 2354.7 189.1 2339.1 211.7ZM2129.7 135.9C2091.4 135.9 2073.4 142.2 2073.4 154.7 2073.4 159.4 2075 165.6 2079.7 173.4L2193.8 343 2178.9 364.8 2016.4 121.9H2129.7L2129.7 135.9 2129.7 135.9ZM1377.3 840.6H1434.4C1450 840.6 1461.7 843.8 1469.5 850 1477.3 856.3 1481.3 866.4 1481.3 880.5 1481.3 889.8 1479.7 897.7 1476.6 903.9 1473.4 909.4 1468 914.1 1461.7 917.2 1478.1 922.7 1486.7 935.2 1486.7 953.9 1486.7 969.5 1482.8 981.3 1474.2 987.5 1465.6 994.5 1453.9 997.7 1438.3 997.7H1378.1V840.6ZM1433.6 856.3H1394.5V910.2H1435.2C1444.5 910.2 1451.6 907.8 1456.2 903.1 1460.9 898.4 1463.3 891.4 1463.3 882 1463.3 872.7 1460.9 865.6 1456.2 861.7 1451.6 857.8 1443.8 856.3 1433.6 856.3ZM1435.2 925.8H1394.5V982.8H1436.7C1446.9 982.8 1454.7 980.5 1460.2 976.6 1465.6 972.7 1468 964.8 1468 953.9 1468 948.4 1467.2 943 1464.8 939.1 1462.5 935.2 1460.2 932 1456.3 930.5 1449.2 927.3 1442.2 925.8 1435.2 925.8ZM1561.7 997.7H1544.5V931.3L1494.5 839.8H1514.1L1553.1 913.3 1592.2 839.8H1611.7L1561.7 931.3 1561.7 997.7 1561.7 997.7ZM1745.3 932.8V917.2H1788.3V994.5C1769.5 998.4 1752.3 1000 1737.5 1000 1714.8 1000 1698.4 993.8 1689.8 980.5 1681.3 967.2 1676.6 946.9 1676.6 919.5S1681.3 871.9 1689.8 858.6C1698.4 845.3 1714.1 839.1 1736.7 839.1 1750.8 839.1 1765.6 840.6 1780.5 843.8L1788.3 845.3 1787.5 860.2C1768.8 857 1752.3 855.5 1739.1 855.5 1721.9 855.5 1710.2 860.2 1703.9 870.3 1697.7 880.5 1694.5 896.9 1694.5 920.3 1694.5 943.8 1697.7 960.2 1703.9 970.3 1710.2 980.5 1721.9 985.2 1739.1 985.2 1750 985.2 1760.2 984.4 1771.9 982V933.6L1745.3 932.8 1745.3 932.8ZM1866.4 853.9C1843.8 853.9 1832 862.5 1832 879.7 1832 889.1 1834.4 896.1 1839.8 899.2 1845.3 903.1 1855.5 906.3 1871.9 910.2 1887.5 914.1 1899.2 918 1906.3 924.2S1916.4 939.1 1916.4 952.3C1916.4 984.4 1900 1000.8 1866.4 1000.8 1855.5 1000.8 1841.4 999.2 1825 996.9L1817.2 996.1 1818.7 981.3C1839.1 984.4 1854.7 985.2 1865.6 985.2 1888.3 985.2 1899.2 974.2 1899.2 953.9 1899.2 945.3 1896.9 939.1 1892.2 935.9 1887.5 932 1878.1 928.9 1864.8 926.6 1846.9 922.7 1834.4 918 1827.3 911.7 1819.5 905.5 1816.4 896.1 1816.4 881.2 1816.4 853.1 1833.6 839.1 1867.2 839.1 1878.1 839.1 1891.4 839.8 1907 842.2L1914.8 843 1913.3 857.8C1890.6 854.7 1875.8 853.9 1866.4 853.9ZM1929.7 856.3V840.6H2043V856.3H1995.3V997.7H1978.1V856.3H1929.7ZM2178.9 920.3C2178.9 948.4 2174.2 968.8 2165.6 981.3 2157 993.7 2140.6 1000 2117.2 1000S2077.3 993.8 2068.8 980.5 2055.5 947.7 2055.5 919.5C2055.5 892.2 2060.2 871.1 2068.8 857.8 2078.1 844.5 2093.8 837.5 2117.2 837.5S2156.3 844.5 2165.6 857.8C2174.2 871.9 2178.9 892.2 2178.9 920.3ZM2072.7 920.3C2072.7 943 2075.8 960.2 2082 970.3 2088.3 980.5 2100 985.2 2117.2 985.2S2146.1 980.5 2152.3 970.3C2158.6 960.9 2160.9 943.8 2160.9 921.1S2157.8 881.3 2151.6 870.3C2145.3 859.4 2133.6 854.7 2116.4 854.7 2099.2 854.7 2087.5 860.2 2082 870.3 2075.8 880.5 2072.7 896.9 2072.7 920.3ZM2306.3 995.3C2290.6 998.4 2276.6 1000 2264.1 1000S2241.4 998.4 2233.6 995.3C2225.8 992.2 2220.3 986.7 2215.6 979.7 2211.7 972.7 2208.6 964.1 2207 954.7 2205.5 945.3 2204.7 933.6 2204.7 919.5 2204.7 905.5 2205.5 893.8 2207 884.4 2208.6 875 2211.7 866.4 2215.6 859.4 2219.5 852.3 2225.8 846.9 2232.8 843.8 2240.6 840.6 2250 839.1 2262.5 839.1S2289.1 840.6 2305.5 843.8L2304.7 858.6C2289.1 855.5 2275.8 854.7 2264.1 854.7 2247.7 854.7 2236.7 859.4 2231.3 869.5S2223.4 896.1 2223.4 920.3C2223.4 932 2224.2 942.2 2225 949.2 2225.8 956.3 2228.1 963.3 2230.5 968.8 2233.6 974.2 2237.5 978.9 2243 981.3 2248.4 983.6 2256.3 985.2 2267.2 985.2S2290.6 983.6 2304.7 981.3L2306.3 995.3ZM2352.3 997.7H2335.2V840.6H2352.3V914.1L2378.1 913.3 2418 841.4H2438.3L2393.8 920.3 2441.4 998.4H2421.1L2378.9 928.9 2353.1 929.7 2352.3 997.7 2352.3 997.7ZM682 840.6C682 840.6 681.3 7 681.3 0H646.9L648.4 840.6H682Z",
        "width": 2441
      },
      "search": [
        "glux-logo"
      ]
    },
    {
      "uid": "954fad43808026b97f245f36483ad688",
      "css": "checkout11",
      "code": 59410,
      "src": "custom_icons",
      "selected": true,
      "svg": {
        "path": "M45.3 348.8C39.1 355 43.5 365.7 52.2 365.7 54.5 365.7 58.5 367.4 61.2 369.4 65.2 372.6 65.4 373.4 62.2 375.6 57 379.1 53.2 378.6 48.8 374.1 42.8 368.4 39.1 370.9 43.5 377.6 48.3 384.1 62.2 385.3 67.2 379.6 72.9 372.4 69.2 364.7 58 361.2 52 359.2 47.3 356.7 47.3 355.7 47.3 351.7 57 350.5 61.9 353.7 68.2 357.5 71.6 354.7 67.2 349.5 63.4 345 49.5 344.5 45.3 348.8ZM74.6 364.4C74.6 379.4 75.4 383.1 78.4 383.1 80.8 383.1 82.1 380.3 82.1 374.4 82.1 366.2 82.6 365.7 90.8 365.7 99 365.7 99.5 366.2 99.5 374.4 99.5 379.1 100.7 383.1 102 383.1 103.5 383.1 104.5 375.1 104.5 364.4 104.5 353.7 103.5 345.8 102 345.8 100.7 345.8 99.5 349 99.5 353.2 99.5 360.2 98.8 360.7 90.8 360.7 82.8 360.7 82.1 360.2 82.1 353.2 82.1 348.3 80.8 345.8 78.4 345.8 75.4 345.8 74.6 349.5 74.6 364.4ZM111.9 364.4C111.9 379.4 112.7 383.1 115.7 383.1 118.7 383.1 119.4 379.4 119.4 364.4 119.4 349.5 118.7 345.8 115.7 345.8 112.7 345.8 111.9 349.5 111.9 364.4ZM124.4 364.4C124.4 379.4 125.1 383.1 128.1 383.1 130.6 383.1 131.8 380.6 131.8 375.6 131.8 368.7 132.6 368.2 140.5 368.2 151.2 368.2 156.2 360.9 152 351.7 149.8 346.5 147.5 345.8 136.8 345.8L124.4 345.8 124.4 364.4ZM145.5 357C145.5 360.4 143.5 362.2 138.8 362.7 132.8 363.4 131.8 362.7 131.8 357 131.8 351.2 132.8 350.5 138.8 351.2 143.5 351.7 145.5 353.5 145.5 357ZM159.2 364.4C159.2 375.1 160.2 383.1 161.7 383.1 163.2 383.1 164.2 379.6 164.2 375.6 164.2 368.9 164.9 368.2 172.4 368.2 181.8 368.2 186.6 364.4 186.6 357 186.6 349 181.6 345.8 169.9 345.8L159.2 345.8 159.2 364.4ZM180.8 354.7C182.6 359.5 177.6 363.2 169.9 363.2 165.4 363.2 164.2 361.7 164.2 357 164.2 351.7 165.4 350.7 171.6 350.7 176.4 350.7 179.9 352.2 180.8 354.7ZM191.5 364.4C191.5 379.4 192.3 383.1 195.3 383.1 198.3 383.1 199 379.4 199 364.4 199 349.5 198.3 345.8 195.3 345.8 192.3 345.8 191.5 349.5 191.5 364.4ZM204 364.4C204 379.4 204.7 383.1 207.7 383.1 210.4 383.1 211.4 379.9 211.4 369.9L211.7 357 219.7 369.9C230.8 388.3 233.8 387.1 233.8 364.4 233.8 343.3 229.6 338.8 228.4 358.7L227.6 371.6 219.7 358.7C208 339.8 204 341.3 204 364.4ZM245.3 351.2C239.3 359.7 240 374.6 246.8 379.1 253.5 383.8 266.4 384.3 270.6 380.1 272.4 378.4 273.6 373.9 273.6 370.1 273.6 364.2 272.6 363.2 266.2 363.2 262.2 363.2 258.7 364.2 258.7 365.7 258.7 366.9 260.9 368.2 263.7 368.2 266.4 368.2 268.7 369.7 268.7 371.6 268.7 380.3 250.2 379.1 247.5 370.4 243 356.7 256 345.3 265.9 354.2 273.6 361.2 277.1 357.2 269.7 349.8 263.7 343.8 249.8 344.8 245.3 351.2ZM569.7 364.4C569.7 375.1 570.6 383.1 572.1 383.1 573.6 383.1 574.6 379.6 574.6 375.6 574.6 368.9 575.4 368.2 582.8 368.2 592.3 368.2 597 364.4 597 357 597 349 592 345.8 580.3 345.8L569.7 345.8 569.7 364.4ZM591.3 354.7C593 359.5 588.1 363.2 580.3 363.2 575.9 363.2 574.6 361.7 574.6 357 574.6 351.7 575.9 350.7 582.1 350.7 586.8 350.7 590.3 352.2 591.3 354.7ZM601.7 362.4C598.5 371.6 595.5 380.1 595 381.1 594.5 382.1 595.8 383.1 597.8 383.1 599.8 383.1 602 380.8 602.7 378.1 603.7 374.6 606.2 373.1 611.4 373.1 616.9 373.1 619.4 374.6 620.6 378.1 621.4 380.8 623.6 383.1 625.6 383.1 628.1 383.1 627.1 378.1 621.4 364.4 617.2 354.2 612.4 345.8 610.9 345.8 609.2 345.8 605.2 353.2 601.7 362.4ZM615.2 363.2C616.2 366.9 615.2 368.2 611.4 368.2 608 368.2 607 366.9 608 364.2 608.7 361.9 609.5 359.2 609.5 358 609.5 353.7 613.7 357.7 615.2 363.2ZM628.1 352.5C630.6 356.5 634.1 361.7 636.1 364.4 637.8 367.2 639.3 372.4 639.3 376.1 639.3 380.1 640.5 383.1 641.8 383.1 643.3 383.1 644.3 379.4 644.3 374.9 644.3 370.4 647 362.7 650.7 357.5 659 345.3 656.2 341.8 647.3 352.7L640.5 360.9 636.1 353.2C633.6 349.3 629.9 345.8 627.6 345.8 624.4 345.8 624.4 346.5 628.1 352.5ZM661.7 364.2C661.7 385.6 666.4 390.8 666.9 369.9L667.2 357 671.4 369.9C673.4 377.1 676.6 383.1 678.4 383.1 679.9 383.1 683.3 377.1 685.8 369.9L690.3 357 691 369.9C692.3 390 696.5 385.6 696.5 364.4 696.5 347.8 696 345.8 691.8 345.8 688.8 345.8 686.6 348 685.6 352 684.8 355.2 682.8 361.2 681.3 364.9L678.6 371.9 674.1 359.5C671.6 352.2 668.2 346.8 665.9 346.3 662.2 345.5 661.7 348 661.7 364.2ZM704 364.4L704 383.1 717.7 383.1C725.1 383.1 731.3 381.8 731.3 380.6 731.3 379.1 726.4 378.1 720.1 378.1 710 378.1 709 377.6 709 371.9 709 366.2 710 365.7 718.9 365.7 724.4 365.7 728.9 364.4 728.9 363.2 728.9 361.7 724.4 360.7 718.9 360.7 710.7 360.7 709 360 709 355.7 709 351.5 710.7 350.7 720.1 350.7 726.4 350.7 731.3 349.5 731.3 348.3 731.3 346.8 725.1 345.8 717.7 345.8L704 345.8 704 364.4ZM736.3 364.4C736.3 385.6 740.5 390 741.8 369.9L742.5 357 750.5 369.9C762.2 389.1 766.2 387.6 766.2 364.4 766.2 349.5 765.4 345.8 762.4 345.8 759.7 345.8 758.7 349 758.7 358.7L758.5 371.9 750.5 358.7C739.3 340.5 736.3 341.5 736.3 364.4ZM768.7 348.3C768.7 349.5 771.4 350.7 774.9 350.7 780.8 350.7 781.1 351.2 781.1 366.9 781.1 376.1 782.1 383.1 783.6 383.1 785.1 383.1 786.1 376.1 786.1 366.9 786.1 351.2 786.3 350.7 792.3 350.7 795.8 350.7 798.5 349.5 798.5 348.3 798.5 346.8 791.8 345.8 783.6 345.8 775.4 345.8 768.7 346.8 768.7 348.3ZM1043.8 351.2C1038.8 358.5 1038.6 370.4 1043.8 377.6 1049 385.1 1062.9 385.1 1068.2 377.6 1073.4 370.4 1070.1 366.7 1064.4 372.9 1058.5 379.1 1054 379.6 1048.8 374.1 1041.5 367.2 1046.3 350.7 1055.2 350.7 1056.7 350.7 1060.2 352.5 1062.7 355 1068.2 359.7 1071.9 357.2 1068.2 351.2 1066.7 348.8 1061.4 346.8 1056.5 346.3 1049.8 345.8 1046.8 346.8 1043.8 351.2ZM1079.6 350.7C1068.4 361.9 1076.4 383.1 1092 383.1 1102.2 383.1 1109.5 375.4 1109.5 364.4 1109.5 353.5 1102.2 345.8 1092 345.8 1087.8 345.8 1082.3 348 1079.6 350.7ZM1101.2 357.2C1105 363.2 1105 364.4 1101.7 370.4 1099.3 374.6 1096 376.9 1092 376.9 1088.1 376.9 1084.8 374.6 1082.3 370.4 1079.1 364.4 1079.1 363.2 1082.8 357.2 1085.3 353.7 1089.3 350.7 1092 350.7 1094.8 350.7 1098.8 353.7 1101.2 357.2ZM1114.4 364.4C1114.4 379.1 1115.2 383.1 1117.9 383.1 1120.6 383.1 1121.9 379.6 1122.4 371.1L1123.1 359.5 1130.6 371.1C1141.3 388.3 1144.3 386.8 1144.3 364.4 1144.3 343.3 1140 338.8 1138.8 358.7L1138.1 371.9 1129.6 358.7C1117.9 340.3 1114.4 341.5 1114.4 364.4ZM1151.7 364.4C1151.7 375.1 1152.7 383.1 1154.2 383.1 1155.7 383.1 1156.7 379.1 1156.7 374.4 1156.7 366.2 1157.2 365.7 1165.4 365.7 1170.1 365.7 1174.1 364.4 1174.1 363.2 1174.1 361.7 1170.1 360.7 1165.4 360.7 1158.5 360.7 1156.7 359.7 1156.7 355.7 1156.7 351.5 1158.5 350.7 1166.7 350.7 1172.1 350.7 1176.6 349.5 1176.6 348.3 1176.6 346.8 1171.1 345.8 1164.2 345.8L1151.7 345.8 1151.7 364.4ZM1181.6 364.4C1181.6 379.4 1182.3 383.1 1185.3 383.1 1188.3 383.1 1189.1 379.4 1189.1 364.4 1189.1 349.5 1188.3 345.8 1185.3 345.8 1182.3 345.8 1181.6 349.5 1181.6 364.4ZM1194 364.4C1194 379.4 1194.8 383.1 1197.8 383.1 1200.2 383.1 1201.5 380.3 1201.5 374.4 1201.5 362.9 1207.2 362.9 1214.4 374.4 1217.7 379.1 1221.6 383.1 1223.4 383.1 1227.6 383.1 1227.1 380.3 1221.4 373.1 1217.2 367.7 1217.2 366.4 1220.4 362.7 1222.6 360.4 1223.9 356 1223.4 352.7 1222.6 347.5 1221.1 347 1208.5 346.3L1194 345.5 1194 364.4ZM1217.7 355.7C1217.7 358.2 1214.7 359.7 1209.7 360.2 1202.7 360.9 1201.5 360.2 1201.5 355.7 1201.5 351.2 1202.7 350.5 1209.7 351.2 1214.7 351.7 1217.7 353.2 1217.7 355.7ZM1231.3 364.2C1231.3 385.6 1236.1 390.8 1236.6 369.9L1236.8 357 1241 369.9C1243 377.1 1246.3 383.1 1248 383.1 1249.5 383.1 1253 377.1 1255.5 369.9L1260 357 1260.7 369.9C1261.9 390 1266.2 385.6 1266.2 364.4 1266.2 347.8 1265.7 345.8 1261.4 345.8 1258.5 345.8 1256.2 348 1255.2 352 1254.5 355.2 1252.5 361.2 1251 364.9L1248.3 371.9 1243.8 359.5C1241.3 352.2 1237.8 346.8 1235.6 346.3 1231.8 345.5 1231.3 348 1231.3 364.2ZM1275.9 362.4C1272.6 371.6 1269.7 380.1 1269.2 381.1 1268.7 382.1 1269.9 383.1 1271.9 383.1 1273.9 383.1 1276.1 380.8 1276.9 378.1 1277.9 374.6 1280.3 373.1 1285.6 373.1 1291 373.1 1293.5 374.6 1294.8 378.1 1295.5 380.8 1297.8 383.1 1299.8 383.1 1302.2 383.1 1301.2 378.1 1295.5 364.4 1291.3 354.2 1286.6 345.8 1285.1 345.8 1283.3 345.8 1279.4 353.2 1275.9 362.4ZM1289.3 363.2C1290.3 366.9 1289.3 368.2 1285.6 368.2 1282.1 368.2 1281.1 366.9 1282.1 364.2 1282.8 361.9 1283.6 359.2 1283.6 358 1283.6 353.7 1287.8 357.7 1289.3 363.2ZM1298.5 348.3C1298.5 349.5 1301.2 350.7 1304.7 350.7 1310.7 350.7 1310.9 351.2 1310.9 366.9 1310.9 376.1 1311.9 383.1 1313.4 383.1 1314.9 383.1 1315.9 376.1 1315.9 366.9 1315.9 351.2 1316.2 350.7 1322.1 350.7 1325.6 350.7 1328.4 349.5 1328.4 348.3 1328.4 346.8 1321.6 345.8 1313.4 345.8 1305.2 345.8 1298.5 346.8 1298.5 348.3ZM1333.3 364.4C1333.3 375.1 1334.3 383.1 1335.8 383.1 1337.3 383.1 1338.3 375.1 1338.3 364.4 1338.3 353.7 1337.3 345.8 1335.8 345.8 1334.3 345.8 1333.3 353.7 1333.3 364.4ZM1349.5 350.7C1346.8 353.7 1344.8 359.7 1344.8 364.4 1344.8 375.6 1351.7 383.1 1362.2 383.1 1371.4 383.1 1380.6 373.9 1380.6 364.4 1380.6 361.4 1378.4 356 1375.4 352.2 1368.9 344 1356.2 343.3 1349.5 350.7ZM1368.4 353.2C1371.6 355 1373.1 358.5 1373.1 364.4 1373.1 376.6 1362.7 382.1 1354.7 374.1 1347.5 367.2 1352 350.7 1360.9 350.7 1362.4 350.7 1365.7 352 1368.4 353.2ZM1385.6 364.4C1385.6 385.6 1389.8 390 1391 369.9L1391.8 357 1399.8 369.9C1411.4 389.1 1415.4 387.6 1415.4 364.4 1415.4 349.5 1414.7 345.8 1411.7 345.8 1409 345.8 1408 349 1408 358.7L1407.7 371.9 1399.8 358.7C1388.6 340.5 1385.6 341.5 1385.6 364.4ZM113.2 435.6C92.5 448 73.9 460.4 71.6 463.2 67.7 467.7 67.2 473.9 67.2 512.2 67.2 543.8 68.2 557.5 70.4 560.2 75.4 566.9 147.5 610 153.5 610 158.5 610 223.9 571.9 234.6 562.7 238.1 559.5 238.8 554.5 238.8 531.6L238.8 504.5 355.2 506C419.2 506.7 496.3 508.2 526.9 509L582.3 510.4 581.8 537.1C581.6 551.7 582.3 565.4 583.6 567.7 584.8 569.9 589.8 573.9 594.5 576.4 599.3 579.1 616.2 589.3 632.1 599 648 609 663.7 616.9 666.9 616.9 672.9 616.9 748 572.4 751.7 566.7 752.7 564.9 753.7 551.2 753.7 536.3L753.7 509.5 956 511.2C1066.9 512.2 1159 513.4 1160 514.2 1161.2 514.9 1161.9 525.1 1161.7 536.8 1161.4 548.8 1161.4 559.7 1161.4 561.4 1161.7 564.2 1230.6 606.7 1238.3 608.5 1240.5 609 1259 599.3 1279.9 586.3L1317.2 563.4 1317.2 517.7 1317.2 471.9 1279.9 448.8C1259.5 436.1 1241.3 425.6 1240 425.6 1238.1 425.4 1165.9 468.2 1161.7 471.9 1161.2 472.4 1160.9 481.3 1161.4 491.8L1161.9 510.4 1007 509C921.6 508.2 829.9 506.7 803 506L753.7 504.5 753.7 491.5C753.7 469.4 753.7 469.7 710 442.8 687.6 429.1 667.9 417.9 666.7 417.9 664.4 417.9 588.6 463.7 583.6 467.9 582.3 469.2 581.1 478.1 581.1 488.1L580.8 506.2 570.9 505.7C565.4 505.5 488.6 504.5 400 503.5L238.8 502 238.8 483.8C238.8 471.1 237.8 464.4 235.3 461.9 229.4 456.2 157.5 412.9 153.7 412.9 151.7 412.9 133.6 423.1 113.2 435.6ZM160 443.8C162.9 445.8 170.4 450.2 176.4 454L187.1 460.7 178.4 466.7C168.2 473.4 164.7 473.9 158.5 469.2 154.5 465.9 151.7 466.9 134.1 477.1L114.4 488.8 114.9 512.2 115.7 535.6 133.1 546.3C142.8 552.2 151.7 557.2 153.5 557.2 155.2 557.2 164.4 552.5 173.9 546.8 190.8 536.6 191.5 535.8 191.5 526.4 191.5 517.2 191.3 516.9 186.1 520.4 182.8 522.4 176.1 526.6 170.6 529.9L160.9 535.6 150.2 529.6C144.3 526.4 139.3 523.1 139.3 522.4 139.3 521.6 150.7 514.4 164.7 506.2 178.6 498 195.5 488.1 202 484.3L213.9 477.1 213.9 513.2 213.9 549 184.1 566.9C167.4 576.9 153.2 584.6 152.2 584.1 151.2 583.6 137.3 575.6 121.1 566.4L92 549.3 92 512.7 92 476.1 122.6 458.2C139.3 448.5 153.2 440.3 153.7 440.3 154 440.3 157 441.8 160 443.8ZM684.3 455.5C693.8 461.2 701.5 466.2 701.5 466.7 701.5 467.2 696.5 470.4 690.5 473.9 679.9 480.1 679.1 480.1 673.1 476.4 666.9 472.1 666.2 472.4 646.8 483.8L626.9 495.5 626.9 518.7 626.9 541.8 646.8 553.5C657.7 560 667.4 564.7 668.7 564.2 669.7 563.9 678.1 559 687.3 553.5 703.2 544.3 704 543.3 704 534.3L704 525.1 689.1 534.1 673.9 543 665.2 538.3C649 529.6 649.3 529.4 687.8 506.5 707.7 494.8 725.1 485.1 726.4 485.1 727.9 485.1 728.9 499 728.9 520.9L728.9 556.5 699.3 574.4C682.8 584.1 668.4 592 667.2 592 665.7 592 651.2 584.1 634.6 574.4L604.5 556.7 604.5 518.9 604.7 481.3 635.1 463.7C651.7 453.7 665.7 445.8 666.2 445.5 666.7 445.3 674.9 450 684.3 455.5ZM1267.2 466.9C1271.6 469.4 1271.1 470.1 1261.7 476.4 1252.2 482.6 1251.2 482.8 1245.5 478.9 1239.6 475.1 1238.8 475.4 1221.6 485.6L1204 496.3 1204 517.9 1204 539.6 1220.9 549.8C1230.3 555.2 1238.8 559.7 1239.8 559.7 1240.8 559.7 1248.8 555.5 1257.5 550.2 1271.9 542 1273.6 540.3 1273.6 532.8 1273.6 528.6 1273.1 524.9 1272.4 524.9 1271.6 524.9 1265.7 528.4 1258.7 532.6L1246.3 540 1236.3 534.6C1230.8 531.3 1226.4 528.4 1226.4 527.6 1226.4 525.6 1290 487.6 1293.3 487.6 1295.3 487.6 1296 497.5 1295.5 520.4L1294.8 553 1268.7 568.7C1254.2 577.4 1241.3 584.6 1239.6 584.6 1238.1 584.6 1224.6 577.6 1209.7 568.9L1182.8 553.2 1182.8 518.7 1182.8 483.8 1211.2 467.4 1239.6 450.7 1251 457.7C1257.2 461.4 1264.7 465.7 1267.2 466.9Z",
        "width": 1448
      },
      "search": [
        "checkout11"
      ]
    }
  ]
}